%YAML 1.1
%TAG !u! tag:unity3d.com,2011:
--- !u!1045 &1
EditorBuildSettings:
  m_ObjectHideFlags: 0
  serializedVersion: 2
  m_Scenes:
  - enabled: 1
    path: Assets/MainMenu.unity
    guid: 72b462a785fa2324ca980ca4423c9985
  - enabled: 1
    path: Assets/Scenes/SampleScene.unity
    guid: 644d08a0bf407447a9a508ae5472c43d
  - enabled: 1
    path: Assets/bd.unity
    guid: af28dc6f2755c904085e8fd54de81ff5
  m_configObjects: {}
